{
  "defaultSeverity": "warn",
  "extends": ["tslint:recommended"],
  "jsRules": {},
  "rules": {
    "trailing-comma": false,
    "member-ordering": false,
    "member-access": false,
    "array-type": false,
    "arrow-parens": [true, "ban-single-arg-parens"],
    "object-literal-sort-keys": false,
    "no-console": false,
    "max-classes-per-file": false
  },
  "rulesDirectory": []
}
